
namespace = flavor_ynnic_empire

#Ynnic Empire restoration, Sarda version
country_event = {
	id = flavor_ynnic_empire.1
	title = flavor_ynnic_empire.1.t
	desc = flavor_ynnic_empire.1.d
	picture = GOOD_WITH_MONARCH_eventPicture
	
	is_triggered_only = yes
	major = yes
	
	option = {
		name = flavor_ynnic_empire.1.a
		if = {
			limit = { has_custom_ideas = no }
			country_event = { id = ideagroups.1 } #Swap Ideas
		}
		country_event = { id = flavor_ynnic_empire.5 days = 30 }
	}
}

#Ynnic Empire restoration, Dolindhan version
country_event = {
	id = flavor_ynnic_empire.2
	title = flavor_ynnic_empire.2.t
	desc = {
		trigger = { 
			NOT = { has_country_flag = g32_battlekingdom_to_ynnic_empire }
		}
	   desc = flavor_ynnic_empire.2.d1
	}
	desc = {
		trigger = { 
			has_country_flag = g32_battlekingdom_to_ynnic_empire
		}
	   desc = flavor_ynnic_empire.2.d2
	}
	
	picture = {
		trigger = { 
			NOT = { has_country_flag = g32_battlekingdom_to_ynnic_empire }
		}
		picture = GOOD_WITH_MONARCH_eventPicture
	}
	picture = {
		trigger = { 
			has_country_flag = g32_battlekingdom_to_ynnic_empire
		}
		picture = REFORM_eventPicture
	}
	
	is_triggered_only = yes
	major = yes
	
	option = {
		trigger = { 
			NOT = { has_country_flag = g32_battlekingdom_to_ynnic_empire }
		}
		name = flavor_ynnic_empire.2.a
		if = {
			limit = { has_custom_ideas = no }
			country_event = { id = ideagroups.1 } #Swap Ideas
		}
		country_event = { id = flavor_ynnic_empire.5 days = 30 }
		clr_country_flag = g32_battlekingdom_to_ynnic_empire
	}
	
	option = {
		trigger = { 
			has_country_flag = g32_battlekingdom_to_ynnic_empire
		}
		name = flavor_ynnic_empire.2.b
		change_government = monarchy
		add_government_reform = feudalism_reform
		hidden_effect = {
			remove_country_modifier = g32_battleking_grace_period
		}
		remove_country_modifier = g32_battleking_fought_recently
		remove_country_modifier = g32_cowardly_battleking
		remove_country_modifier = g32_untested_battleking
		remove_country_modifier = g32_tested_battleking
		remove_country_modifier = g32_bloodied_battleking
		remove_country_modifier = g32_veteran_battleking
		remove_country_modifier = g32_legendary_battleking
		if = {
			limit = { has_custom_ideas = no }
			country_event = { id = ideagroups.1 } #Swap Ideas
		}
		country_event = { id = flavor_ynnic_empire.5 days = 30 }
	}
}

#Ynnic Empire restoration, Rzentur version
country_event = {
	id = flavor_ynnic_empire.3
	title = flavor_ynnic_empire.3.t
	desc = flavor_ynnic_empire.3.d
	picture = GOOD_WITH_MONARCH_eventPicture
	
	is_triggered_only = yes
	major = yes
	
	option = {
		name = flavor_ynnic_empire.3.a
		if = {
			limit = { has_custom_ideas = no }
			country_event = { id = ideagroups.1 } #Swap Ideas
		}
		country_event = { id = flavor_ynnic_empire.5 days = 30 }
	}
}

#Ynnic Empire restoration, Outsider version
country_event = {
	id = flavor_ynnic_empire.4
	title = flavor_ynnic_empire.4.t
	desc = flavor_ynnic_empire.4.d
	picture = GOOD_WITH_MONARCH_eventPicture
	
	is_triggered_only = yes
	major = yes
	
	option = {
		name = flavor_ynnic_empire.4.a
		if = {
			limit = { has_custom_ideas = no }
			country_event = { id = ideagroups.1 } #Swap Ideas
		}
		country_event = { id = flavor_ynnic_empire.5 days = 30 }
	}
}

#Choose a new capital for the Ynnic Empire
country_event = {
	id = flavor_ynnic_empire.5
	title = flavor_ynnic_empire.5.t
	desc = flavor_ynnic_empire.5.desc
	picture = FORT_eventPicture
	
	is_triggered_only = yes
	
	option = {
		name = flavor_ynnic_empire.5.a
		
		ai_chance = {
			factor = 3
			modifier = {
				factor = 3
				OR = {
					capital = 1139
					capital = 1171
					capital = 1191
				}
			}
		}
	}
	
	option = {
		name = flavor_ynnic_empire.5.b
		
		trigger = { NOT = { capital = 1139 } }
		
		if = {
			limit = { NOT = { is_core = 1139 } }
			1139 = { add_core = ROOT }
		}
		
		if = {
			limit = { NOT = { owns = 1139 } }
			1139 = { cede_province = ROOT }
		}
		
		set_capital = 1139
		
		ai_chance = {
			factor = 1
			modifier = {
				factor = 3
				primary_culture = sarda
			}
		}
	}
	
	option = {
		name = flavor_ynnic_empire.5.c
		
		trigger = { NOT = { capital = 1171 } }
		
		if = {
			limit = { NOT = { is_core = 1171 } }
			1171 = { add_core = ROOT }
		}
		
		if = {
			limit = { NOT = { owns = 1171 } }
			1171 = { cede_province = ROOT }
		}
		
		set_capital = 1171
		
		ai_chance = {
			factor = 1
			modifier = {
				factor = 3
				primary_culture = dolindhan
			}
		}
	}
	
	option = {
		name = flavor_ynnic_empire.5.d
		
		trigger = { NOT = { capital = 1191 } }
		
		if = {
			limit = { NOT = { is_core = 1191 } }
			1191 = { add_core = ROOT }
		}
		
		if = {
			limit = { NOT = { owns = 1191 } }
			1191 = { cede_province = ROOT }
		}
		
		set_capital = 1191
		
		ai_chance = {
			factor = 1
			modifier = {
				factor = 3
				primary_culture = rzentur
			}
		}
	}
}

country_event = {	#The Moon Field
	id = flavor_ynnic_empire.10
	title = flavor_ynnic_empire.10.t
	desc = flavor_ynnic_empire.10.d
	picture = PEASANTS_ON_STEPPES_eventPicture
	
	fire_only_once = yes
	
	trigger = {
		technology_group = tech_ynnic
		OR = {
			owns_core_province = 1141
			owns_core_province = 2815
			owns_core_province = 2841
		}
		any_known_country = {
			OR = {
				technology_group = tech_cannorian
				technology_group = tech_elven
				technology_group = tech_dwarven
				technology_group = tech_halfling
				technology_group = tech_gnomish
			}
		}
	}
	
	mean_time_to_happen = {
		days = 7300 #20 Years
	}
	
	option = { #Mil bonus
        name = flavor_ynnic_empire.10.a
		add_mil_power = -100
		add_manpower = -10
		custom_tooltip = moonfield_mil_tt
		hidden_effect = {
			set_country_flag = moonfield_mil_flag
		}
		country_event = {
			id = flavor_ynnic_empire.11
			days = 7300
		}
	}
	
	option = { #adm bonus
        name = flavor_ynnic_empire.10.b
		add_adm_power = -100
		add_treasury = -200
		custom_tooltip = moonfield_adm_tt
		hidden_effect = {
			set_country_flag = moonfield_adm_flag
		}
		country_event = {
			id = flavor_ynnic_empire.11
			days = 7300
		}
	}
	
	option = { #dip bonus
        name = flavor_ynnic_empire.10.c
		add_dip_power = -100
		add_prestige = -20
		custom_tooltip = moonfield_dip_tt
		hidden_effect = {
			set_country_flag = moonfield_dip_flag
		}
		country_event = {
			id = flavor_ynnic_empire.11
			days = 7300
		}
	}
	
	
	option = { #Decline
        name = flavor_ynnic_empire.10.e
		add_prestige = -10
	}
	
	option = { #Pomentere Estates
        name = flavor_ynnic_empire.10.f
		highlight = yes
		trigger = {
			any_owned_province = {
				has_province_modifier = ynn_pomentere_estates
			}
		}
		custom_tooltip = moonfield_pomentere_tt
		hidden_effect = {
			set_country_flag = moonfield_pomentere_flag
		}
		country_event = {
			id = flavor_ynnic_empire.11
			days = 7300
		}
	}
	
	option = { #Predyvens System
        name = flavor_ynnic_empire.10.g
		highlight = yes
		trigger = {
			OR = {
				tag = G35
				was_tag = G35
			}
		}
		add_mil_power = -150
		add_manpower = -5
		custom_tooltip = moonfield_predyvens_tt
		hidden_effect = {
			set_country_flag = moonfield_predyvens_flag
		}
		country_event = {
			id = flavor_ynnic_empire.11
			days = 7300
		}
	}
	
	option = { #Have good traits
        name = flavor_ynnic_empire.10.h
		highlight = yes
		trigger = {
			OR = {
				ruler_has_personality = well_connected_personality
				ruler_has_personality = entrepreneur_personality
				ruler_has_personality = expansionist_personality
				ruler_has_personality = industrious_personality
				ruler_has_personality = architectural_visionary
			}
		}
		add_adm_power = -50
		add_dip_power = -50
		add_mil_power = -50
		add_treasury = -100
		custom_tooltip = moonfield_good_ruler_tt
		hidden_effect = {
			set_country_flag = moonfield_good_ruler_flag
		}
		country_event = {
			id = flavor_ynnic_empire.11
			days = 7300
		}
	}
}

country_event = {	#Moonfield Rewards
	id = flavor_ynnic_empire.11
	title = flavor_ynnic_empire.11.t
	desc = flavor_ynnic_empire.11.d
	picture = FARMING_eventPicture
	
	is_triggered_only = yes
	fire_only_once = yes
	
	immediate = {
		hidden_effect = {
			if = {
				limit = {
					1141 = {
						is_city = no
						is_colony = no
					}
				}
				1141 = {
					create_colony = 1000
					add_core = ROOT
					cede_province = ROOT
					change_culture = sarda
					change_religion = ROOT
				}
			}
			if = {
				limit = {
					2841 = {
						is_city = no
						is_colony = no
					}
				}
				2841 = {
					create_colony = 1000
					add_core = ROOT
					cede_province = ROOT
					change_culture = sarda
					change_religion = ROOT
				}
			}
			
			if = {
				limit = {
					2815 = {
						is_city = no
						is_colony = no
					}
				}
				2815 = {
					create_colony = 1000
					add_core = ROOT
					cede_province = ROOT
					change_culture = sarda
					change_religion = ROOT
				}
			}
	
		}
	}
	
	option = {
		trigger = {
			has_country_flag = moonfield_mil_flag
		}
		name = flavor_ynnic_empire.11.a
		custom_tooltip = moonfield_mil_reward_tt
		if = {
			limit = {
				1141 = {
					owned_by = ROOT
				}
			}
			1141 = {
				add_base_manpower = 2
				add_province_modifier = {
					name = moonfield_mil_modifier
					duration = -1
				}
			}
		}
		if = {
			limit = {
				2841 = {
					owned_by = ROOT
				}
			}
			2841 = {
				add_base_manpower = 2
				add_province_modifier = {
					name = moonfield_mil_modifier
					duration = -1
				}
			}
		}
		if = {
			limit = {
				2815 = {
					owned_by = ROOT
				}
			}
			2815 = {
				add_base_manpower = 2
				add_province_modifier = {
					name = moonfield_mil_modifier
					duration = -1
				}
			}
		}
	}
	
	option = {
		trigger = {
			has_country_flag = moonfield_adm_flag
		}
		name = flavor_ynnic_empire.11.a
		custom_tooltip = moonfield_adm_reward_tt
		if = {
			limit = {
				1141 = {
					owned_by = ROOT
				}
			}
			1141 = {
				add_base_tax = 2
				add_province_modifier = {
					name = moonfield_adm_modifier
					duration = -1
				}
			}
		}
		if = {
			limit = {
				2841 = {
					owned_by = ROOT
				}
			}
			2841 = {
				add_base_tax = 2
				add_province_modifier = {
					name = moonfield_adm_modifier
					duration = -1
				}
			}
		}
		if = {
			limit = {
				2815 = {
					owned_by = ROOT
				}
			}
			2815 = {
				add_base_tax = 2
				add_province_modifier = {
					name = moonfield_adm_modifier
					duration = -1
				}
			}
		}
	}
	
	option = {
		trigger = {
			has_country_flag = moonfield_dip_flag
		}
		name = flavor_ynnic_empire.11.a
		custom_tooltip = moonfield_dip_reward_tt
		if = {
			limit = {
				1141 = {
					owned_by = ROOT
				}
			}
			1141 = {
				add_base_production = 2
				add_province_modifier = {
					name = moonfield_dip_modifier
					duration = -1
				}
			}
		}
		if = {
			limit = {
				2841 = {
					owned_by = ROOT
				}
			}
			2841 = {
				add_base_production = 2
				add_province_modifier = {
					name = moonfield_dip_modifier
					duration = -1
				}
			}
		}
		if = {
			limit = {
				2815 = {
					owned_by = ROOT
				}
			}
			2815 = {
				add_base_production = 2
				add_province_modifier = {
					name = moonfield_dip_modifier
					duration = -1
				}
			}
		}
	}
	
	option = {
		trigger = {
			has_country_flag = moonfield_pomentere_flag
		}
		name = flavor_ynnic_empire.11.a
		custom_tooltip = moonfield_pomentere_reward_tt
		if = {
			limit = {
				1141 = {
					owned_by = ROOT
				}
			}
			1141 = {
				add_base_manpower = 1
				add_unrest = 3
				change_culture = veykodan
				change_religion = rune_scribes
				add_province_modifier = {
					name = ynn_pomentere_estates
					duration = -1
				}
				add_province_modifier = {
					name = moonfield_modifier
					duration = -1
				}
			}
		}
		if = {
			limit = {
				2841 = {
					owned_by = ROOT
				}
			}
			2841 = {
				add_base_manpower = 1
				add_unrest = 3
				change_culture = veykodan
				change_religion = rune_scribes
				add_province_modifier = {
					name = ynn_pomentere_estates
					duration = -1
				}
				add_province_modifier = {
					name = moonfield_modifier
					duration = -1
				}
			}
		}
		if = {
			limit = {
				2815 = {
					owned_by = ROOT
				}
			}
			2815 = {
				add_base_manpower = 1
				add_unrest = 3
				change_culture = veykodan
				change_religion = rune_scribes
				add_province_modifier = {
					name = ynn_pomentere_estates
					duration = -1
				}
				add_province_modifier = {
					name = moonfield_modifier
					duration = -1
				}
			}
		}
	}
	
	option = {
		trigger = {
			has_country_flag = moonfield_predyvens_flag
		}
		name = flavor_ynnic_empire.11.a
		custom_tooltip = moonfield_predyvens_reward_tt
		add_army_professionalism = 0.05
		define_general = {
			shock = 4
			fire = 3
			manuever = 1
			siege = 2
		}
		if = {
			limit = {
				1141 = {
					owned_by = ROOT
				}
			}
			1141 = {
				add_base_manpower = 2
				add_province_modifier = {
					name = moonfield_mil_modifier
					duration = -1
				}
			}
		}
		if = {
			limit = {
				2841 = {
					owned_by = ROOT
				}
			}
			2841 = {
				add_base_manpower = 2
				add_province_modifier = {
					name = moonfield_mil_modifier
					duration = -1
				}
			}
		}
		if = {
			limit = {
				2815 = {
					owned_by = ROOT
				}
			}
			2815 = {
				add_base_manpower = 2
				add_province_modifier = {
					name = moonfield_mil_modifier
					duration = -1
				}
			}
		}
	}
	
	option = {
		trigger = {
			has_country_flag = moonfield_good_ruler_flag
		}
        name = flavor_ynnic_empire.11.a
		custom_tooltip = moonfield_good_ruler_reward_tt
		add_stability = 1
		if = {
			limit = {
				1141 = {
					owned_by = ROOT
				}
			}
			1141 = {
				add_base_manpower = 1
				add_base_tax = 1
				add_base_production = 1
				add_province_modifier = {
					name = moonfield_good_ruler_modifier
					duration = -1
				}
			}
		}
		if = {
			limit = {
				2841 = {
					owned_by = ROOT
				}
			}
			2841 = {
				add_base_manpower = 1
				add_base_tax = 1
				add_base_production = 1
				add_province_modifier = {
					name = moonfield_good_ruler_modifier
					duration = -1
				}
			}
		}
		if = {
			limit = {
				2815 = {
					owned_by = ROOT
				}
			}
			2815 = {
				add_base_manpower = 1
				add_base_tax = 1
				add_base_production = 1
				add_province_modifier = {
					name = moonfield_good_ruler_modifier
					duration = -1
				}
			}
		}
	}
	
	after = {
		hidden_effect = {
			clr_country_flag = moonfield_adm_flag
			clr_country_flag = moonfield_dip_flag
			clr_country_flag = moonfield_mil_flag
			clr_country_flag = moonfield_predyvens_flag
			clr_country_flag = moonfield_pomentere_flag
			clr_country_flag = moonfield_good_ruler_flag
		}
	}
}