namespace = troll_tolerance_events

# Event organizer for the troll tolerance events - should be a huge improvement to performance - having 1 overall check for having the minority instead of one for EACH new event that gets added
country_event = {
	id = troll_tolerance_events.0
	title = race_setup_events.1.d
	desc = race_setup_events.1.d
	picture = BORDER_TENSION_eventPicture

	is_triggered_only = yes
	hidden = yes

	trigger = {
		NOT = { culture_group = giantkind }
		any_owned_province = {
			has_troll_minority_trigger = yes
		}
	}
	
	mean_time_to_happen = {
		days = 1
		modifier = {
			factor = 10
			has_country_modifier = racial_focus_troll
		}
	}

	option = {
		random_list = {
			# # 
			# 1 = {
				# trigger = {
					
				# }
				# modifier = {
					
				# }
				# country_event = {
					# #id = 
				# }
			# }
			#troll minister
			1 = {
				modifier = {
					factor = 1.5
					medium_tolerance_troll_race_trigger = yes
				}
				modifier = {
					factor = 2
					high_tolerance_troll_race_trigger = yes
				}
				country_event = {
					id = troll_tolerance_events.1
				}
			}
			#troll toll
			1 = {
				trigger = {
					has_estate = estate_nobles
				}
				modifier = {
					factor = 2
					corruption = 2
				}
				modifier = {
					factor = 1.5
					estate_influence = {
						estate = estate_nobles
						influence = 50
					}
				}
				country_event = {
					id = troll_tolerance_events.4
				}
			}
			#trail of destruction
			1 = {
				modifier = {
					factor = 2
					low_tolerance_troll_race_trigger = yes
				}
				country_event = {
					id = troll_tolerance_events.5
				}
			}
		
		}
	}
}

# troll minister
country_event = {
	id = troll_tolerance_events.1
	title = troll_tolerance_events.1.t
	desc = troll_tolerance_events.1.d
	picture = ADVISOR_eventPicture
	
	is_triggered_only = yes

	# If you have a troll culture province, that's the one the advisor comes from
	immediate = {
		hidden_effect = {
			if = {
				limit = {
					any_owned_province = {
						culture_group = troll
					}
				}
				random_owned_province = {
					limit = { culture_group = troll }
					save_event_target_as = troll_advisor_culture_province
				}
				set_country_flag = troll_advisor_culture_set
			}
		}
	}

	# Recruit the troll
	option = {
		name = troll_tolerance_events.1.a
		ai_chance = {
			factor = 50
			modifier = {
				factor = 0.5
				wants_to_maintain_tolerance_troll = yes
			}
			modifier = {
				factor = 0.1
				wants_to_decrease_tolerance_troll = yes
			}
		}
		small_increase_of_troll_tolerance_effect = yes
		if = {
			limit = { has_country_flag = troll_advisor_culture_set }
			if = {
				limit = { monthly_income = 50 }
				random_list = {
					1 = {
						define_advisor = {
							type = treasurer
							culture = event_target:troll_advisor_culture_province
							religion = event_target:troll_advisor_culture_province
							skill = 3
							
							discount = yes
						}
					}
					1 = {
						define_advisor = {
							type = recruitmaster
							culture = event_target:troll_advisor_culture_province
							religion = event_target:troll_advisor_culture_province
							skill = 3
							
							discount = yes
						}
					}
				}
			}
			else_if = {
				limit = { monthly_income = 25 }
				random_list = {
					1 = {
						define_advisor = {
							type = treasurer
							culture = event_target:troll_advisor_culture_province
							religion = event_target:troll_advisor_culture_province
							skill = 2
							
							discount = yes
						}
					}
					1 = {
						define_advisor = {
							type = recruitmaster
							culture = event_target:troll_advisor_culture_province
							religion = event_target:troll_advisor_culture_province
							skill = 2
							
							discount = yes
						}
					}
				}
			}
			else = {
				random_list = {
					1 = {
						define_advisor = {
							type = treasurer
							culture = event_target:troll_advisor_culture_province
							religion = event_target:troll_advisor_culture_province
							skill = 1
							
							discount = yes
						}
					}
					1 = {
						define_advisor = {
							type = recruitmaster
							culture = event_target:troll_advisor_culture_province
							religion = event_target:troll_advisor_culture_province
							skill = 1
							
							discount = yes
						}
					}
				}
			}
		}
		else = {
			if = {
				limit = { monthly_income = 50 }
				random_list = {
					1 = {
						define_advisor = {
							type = treasurer
							culture = fjord_troll
							skill = 3
							
							discount = yes
						}
					}
					1 = {
						define_advisor = {
							type = recruitmaster
							culture = fjord_troll
							skill = 3
							
							discount = yes
						}
					}
				}
			}
			else_if = {
				limit = { monthly_income = 25 }
				random_list = {
					1 = {
						define_advisor = {
							type = treasurer
							culture = fjord_troll
							skill = 2
							
							discount = yes
						}
					}
					1 = {
						define_advisor = {
							type = recruitmaster
							culture = fjord_troll
							skill = 2
							discount = yes
						}
					}
				}
			}
			else = {
				random_list = {
					1 = {
						define_advisor = {
							type = treasurer
							culture = fjord_troll
							skill = 1
							
							discount = yes
						}
					}
					1 = {
						define_advisor = {
							type = recruitmaster
							culture = fjord_troll
							skill = 1
							discount = yes
						}
					}
				}
			}
		}
	}

	# A true exemplar of their race
	option = {
		name = troll_tolerance_events.1.b
		ai_chance = {
			factor = 50
			modifier = {
				factor = 2
				wants_to_increase_tolerance_troll = yes
			}
		}
		medium_increase_of_troll_tolerance_effect = yes
	}

	# We dun give a shit
	option = {
		name = troll_tolerance_events.1.c
		ai_chance = {
			factor = 50
			modifier = {
				factor = 2
				wants_to_decrease_tolerance_troll = yes
			}
		}
		small_decrease_of_troll_tolerance_effect = yes
	}

	after = {
		clr_country_flag = troll_advisor_culture_set
	}
}

#a troll has taken over a noble's bridge and imposes a toll
country_event = {
	id = troll_tolerance_events.4
	title = troll_tolerance_events.4.t
	desc = troll_tolerance_events.4.d
	picture = CORRUPTION_eventPicture
	
	is_triggered_only = yes
		
	#fine the noble, promote the troll
	option = {	
		name = troll_tolerance_events.4.a
		ai_chance = {
			factor = 50
			modifier = {
				factor = 0.1
				wants_to_increase_tolerance_troll = yes
			}
		}
		add_estate_loyalty = {
			estate = estate_nobles
			loyalty = -20
		}
		add_years_of_income = 0.55
		small_increase_of_troll_tolerance_effect = yes
	}
	
	#reassure the troll
	option = {
		name = troll_tolerance_events.4.b
		ai_chance = {
			factor = 50
		}
		small_increase_of_troll_tolerance_effect = yes
		add_estate_loyalty = {
			estate = estate_nobles
			loyalty = -10
		}
	}
	
	#allow the noble to do whatever
	option = {
		name = troll_tolerance_events.4.c
		ai_chance = {
			factor = 50
			modifier = {
				factor = 0.5
				wants_to_increase_tolerance_troll = yes
			}
		}
		
		random_owned_province = {
			limit = {
				OR = {
					has_troll_minority_trigger = yes
					has_large_troll_minority_trigger = yes
					NOT = { has_province_modifier = troll_corrupt_tolling }	
				}
			}
			add_province_modifier = {
				name = troll_corrupt_tolling
				duration = 3650
			}
		}
	}
}

# troll trail of destruction
country_event = {
	id = troll_tolerance_events.5
	title = troll_tolerance_events.5.t
	desc = troll_tolerance_events.5.d
	picture = VILLAGE_BURNING_eventPicture
	goto = troll_trail_province

	is_triggered_only = yes
	
	immediate = {
		hidden_effect = {
			random_owned_province = {
				limit = {
					has_troll_minority_trigger = yes
					NOT = { has_province_modifier = aw_trolls_1 }	
				}
				save_event_target_as = troll_trail_province
			}
			random_owned_province = {
				limit = {
					has_large_troll_minority_trigger = yes
					NOT = { has_province_modifier = aw_trolls_1 }	
				}
				save_event_target_as = troll_trail_province
			}
		}
	}
	
	#watch how academiacs handle it
	option = {
		name = troll_tolerance_events.5.a
		ai_chance = {
			factor = 50
			modifier = {
				factor = 0.5
				wants_to_decrease_tolerance_troll = yes
			}
		}
		medium_increase_of_troll_tolerance_effect = yes
		event_target:troll_trail_province = {
			add_devastation = 15
		}
		add_adm_power = -20
	}
	#tell peasants to solve it
	option = {
		name = troll_tolerance_events.5.b
		ai_chance = {
			factor = 50
			modifier = {
				factor = 0.5
				wants_to_decrease_tolerance_troll = yes
			}	
		}
		event_target:troll_trail_province = {
			add_devastation = 25
			add_unrest = 5
			province_event = { id = aw_trolls.0 }
		}
		
	}
	#hire a professional
	option = {
		trigger = {
			has_estate = estate_adventurers
		}
		name = troll_tolerance_events.5.c
		ai_chance = {
			factor = 50
			modifier = {
				factor = 0.5
				wants_to_increase_tolerance_troll = yes
			}
		}
		add_estate_loyalty = {
			estate = estate_adventurers
			loyalty = 5
		}
		add_years_of_income = 0.25
		medium_decrease_of_troll_tolerance_effect = yes
	}
}