
JY_LF_clear_pirate_choice = {
	clr_global_flag = JY_LF_P_bribe
	clr_global_flag = JY_LF_P_sneak
	clr_global_flag = JY_LF_P_fight
	clr_global_flag = JY_LF_P_nah
	clr_global_flag = JY_LF_P_bribe_2
	clr_global_flag = JY_LF_P_sneak_2
	clr_global_flag = JY_LF_P_fight_2
	clr_global_flag = JY_LF_P_met
}

JY_LF_clear_pirate_status = {
	clr_global_flag = JY_LF_P_weak
	clr_global_flag = JY_LF_P_weaker
}

JY_LF_tuuchuweg_check = {
	if = {
		limit = { 
			4990 = { 
				is_city = yes
				owner = { NOT = { has_country_flag = JY_LF_tuuchuweg_checked } }
			}
		}
		4990 = { 
			province_event = { id = treasurefleet.3 days = 50 }
			owner = { set_country_flag = JY_LF_tuuchuweg_checked }
		}
	}
}

#JY_LF_somyonghon_check = {
#	if = {
#		limit = { NOT = { has_global_flag = JY_LF_somyonghon_caught_first } }
#		
#	}
#}

JY_LF_damage_ship = {
	custom_tooltip = JY_LF_damage
	if = {
		limit = { has_global_flag = JY_LF_damage_4 }
		set_global_flag = JY_LF_damage_5
	}
	else_if = {
		limit = { has_global_flag = JY_LF_damage_3 }
		set_global_flag = JY_LF_damage_4
	}
	else_if = {
		limit = { has_global_flag = JY_LF_damage_2 }
		set_global_flag = JY_LF_damage_3
	}
	else_if = {
		limit = { has_global_flag = JY_LF_damage_1 }
		set_global_flag = JY_LF_damage_2
	}
	else = {
		set_global_flag = JY_LF_damage_1
	}
}

#Takes away money for how much damage was sustained.
JY_LF_clear_damage = {
	if = {
		limit = { has_global_flag = JY_LF_damage_5 }
		custom_tooltip = JY_LF_damaged
		add_treasury = -75
	}
	else_if = {
		limit = { has_global_flag = JY_LF_damage_4 }
		custom_tooltip = JY_LF_damaged
		add_treasury = -60
	}
	else_if = {
		limit = { has_global_flag = JY_LF_damage_3 }
		custom_tooltip = JY_LF_damaged
		add_treasury = -45
	}
	else_if = {
		limit = { has_global_flag = JY_LF_damage_2 }
		custom_tooltip = JY_LF_damaged
		add_treasury = -30
	}
	else_if = {
		limit = { has_global_flag = JY_LF_damage_1 }
		custom_tooltip = JY_LF_damaged
		add_treasury = -15
	}
	else = {
		custom_tooltip = JY_LF_not_damaged
	}
	clr_global_flag = JY_LF_damage_1
	clr_global_flag = JY_LF_damage_2
	clr_global_flag = JY_LF_damage_3
	clr_global_flag = JY_LF_damage_4
	clr_global_flag = JY_LF_damage_5
}

JY_LF_trade = {
	add_province_modifier = {
		name = JY_LF_trading
		duration = 30
	}
	if = {
		limit = {
			owner = { mission_completed = Y15_goods_purse }
			NOT = { has_global_flag = JY_LF_Y15_perks }
		}
		owner = { JY_LF_Y15 = yes }
	}
	JY_LF_learn = yes
	JY_LF_teach = yes
	if = {
		limit = { owner = { has_country_flag = JY_LF_wants_no_news } }
		custom_tooltip = JY_LF_three_ports
	}
}

JY_LF_visit = {
	set_province_flag = JY_LF_visited
	hidden_effect = {
		5226 = {
			change_variable = {
				which = JY_LF_ports
				value = 1
			}
		}
	}
	hidden_effect = { province_event = { id = treasurefleet.90 } }
}

JY_LF_clear_visited = {
	every_province = {
		limit = { has_province_flag = JY_LF_visited }
		clr_province_flag = JY_LF_visited
	}
	clr_global_flag = JY_LF_Y15_perks
}

JY_LF_learn = {
	if = {
		limit = {
			renaissance = 100
			NOT = { has_global_flag = JY_LF_renaissance }
			NOT = { has_global_flag = JY_LF_renaissance2 }
			NOT = { has_global_flag = JY_LF_new_institution }
		}
		set_global_flag = JY_LF_renaissance
		set_global_flag = JY_LF_new_institution
		custom_tooltip = JY_LF_renaissance_l
		owner = { add_treasury = 40 }
	}
	if = {
		limit = {
			new_world_i = 100
			NOT = { has_global_flag = JY_LF_new_world_i }
			NOT = { has_global_flag = JY_LF_new_world_i2 }
			NOT = { has_global_flag = JY_LF_new_institution }
		}
		set_global_flag = JY_LF_new_world_i
		set_global_flag = JY_LF_new_institution
		custom_tooltip = JY_LF_new_world_i_l
		owner = { add_treasury = 40 }
	}
	if = {
		limit = {
			printing_press = 100
			NOT = { has_global_flag = JY_LF_printing_press }
			NOT = { has_global_flag = JY_LF_printing_press2 }
			NOT = { has_global_flag = JY_LF_new_institution }
		}
		set_global_flag = JY_LF_printing_press
		set_global_flag = JY_LF_new_institution
		custom_tooltip = JY_LF_printing_press_l
		owner = { add_treasury = 40 }
	}
	if = {
		limit = {
			global_trade = 100
			NOT = { has_global_flag = JY_LF_global_trade }
			NOT = { has_global_flag = JY_LF_global_trade2 }
			NOT = { has_global_flag = JY_LF_new_institution }
		}
		set_global_flag = JY_LF_global_trade
		set_global_flag = JY_LF_new_institution
		custom_tooltip = JY_LF_global_trade_l
		owner = { add_treasury = 40 }
	}
	if = {
		limit = {
			manufactories = 100
			NOT = { has_global_flag = JY_LF_manufactories }
			NOT = { has_global_flag = JY_LF_manufactories2 }
			NOT = { has_global_flag = JY_LF_new_institution }
		}
		set_global_flag = JY_LF_manufactories
		set_global_flag = JY_LF_new_institution
		custom_tooltip = JY_LF_manufactories_l
		owner = { add_treasury = 40 }
	}
	if = {
		limit = {
			enlightenment = 100
			NOT = { has_global_flag = JY_LF_enlightenment }
			NOT = { has_global_flag = JY_LF_enlightenment2 }
			NOT = { has_global_flag = JY_LF_new_institution }
		}
		set_global_flag = JY_LF_enlightenment
		set_global_flag = JY_LF_new_institution
		custom_tooltip = JY_LF_enlightenment_l
		owner = { add_treasury = 40 }
	}
	if = {
		limit = {
			industrialization = 100
			NOT = { has_global_flag = JY_LF_industrialization }
			NOT = { has_global_flag = JY_LF_industrialization2 }
			NOT = { has_global_flag = JY_LF_new_institution }
		}
		set_global_flag = JY_LF_industrialization
		set_global_flag = JY_LF_new_institution
		custom_tooltip = JY_LF_industrialization_l
		owner = { add_treasury = 40 }
	}
}

JY_LF_learned = {
	if = {
		limit = {
			renaissance = 100
			NOT = { has_global_flag = JY_LF_renaissance2 }
		}
		set_global_flag = JY_LF_renaissance2
		custom_tooltip = JY_LF_l_renaissance
	}
	if = {
		limit = {
			new_world_i = 100
			NOT = { has_global_flag = JY_LF_new_world_i2 }
		}
		set_global_flag = JY_LF_new_world_i2
		custom_tooltip = JY_LF_l_new_world_i
	}
	if = {
		limit = {
			printing_press = 100
			NOT = { has_global_flag = JY_LF_printing_press2 }
		}
		set_global_flag = JY_LF_printing_press2
		custom_tooltip = JY_LF_l_printing_press
	}
	if = {
		limit = {
			global_trade = 100
			NOT = { has_global_flag = JY_LF_global_trade2 }
		}
		set_global_flag = JY_LF_global_trade2
		custom_tooltip = JY_LF_l_global_trade
	}
	if = {
		limit = {
			manufactories = 100
			NOT = { has_global_flag = JY_LF_manufactories2 }
		}
		set_global_flag = JY_LF_manufactories2
		custom_tooltip = JY_LF_l_manufactories
	}
	if = {
		limit = {
			enlightenment = 100
			NOT = { has_global_flag = JY_LF_enlightenment2 }
		}
		set_global_flag = JY_LF_enlightenment2
		custom_tooltip = JY_LF_l_enlightenment
	}
	if = {
		limit = {
			industrialization = 100
			NOT = { has_global_flag = JY_LF_industrialization2 }
		}
		set_global_flag = JY_LF_industrialization2
		custom_tooltip = JY_LF_l_industrialization
	}
}

JY_LF_teach_self = {
	if = {
		limit = { has_global_flag = JY_LF_institution_speed } #Beikdugang MT
		custom_tooltip = JY_LF_Y15_speed
		if = {
			limit = {
				NOT = { renaissance = 100 }
				has_global_flag = JY_LF_renaissance
			}
			add_institution_embracement = {
				which = renaissance
				value = 100
			}
		}
		if = {
			limit = {
				NOT = { new_world_i = 100 }
				has_global_flag = JY_LF_new_world_i
			}
			add_institution_embracement = {
				which = new_world_i
				value = 100
			}
		}
		if = {
			limit = {
				NOT = { printing_press = 100 }
				has_global_flag = JY_LF_printing_press
			}
			add_institution_embracement = {
				which = printing_press
				value = 100
			}
		}
		if = {
			limit = {
				NOT = { global_trade = 100 }
				has_global_flag = JY_LF_global_trade
			}
			add_institution_embracement = {
				which = global_trade
				value = 100
			}
		}
		if = {
			limit = {
				NOT = { manufactories = 100 }
				has_global_flag = JY_LF_manufactories
			}
			add_institution_embracement = {
				which = manufactories
				value = 100
			}
		}
		if = {
			limit = {
				NOT = { enlightenment = 100 }
				has_global_flag = JY_LF_enlightenment
			}
			add_institution_embracement = {
				which = enlightenment
				value = 100
			}
		}
		if = {
			limit = {
				NOT = { industrialization = 100 }
				has_global_flag = JY_LF_industrialization
			}
			add_institution_embracement = {
				which = industrialization
				value = 100
			}
		}
	}
	else = {
		if = {
			limit = {
				NOT = { renaissance = 100 }
				has_global_flag = JY_LF_renaissance
			}
			add_institution_embracement = {
				which = renaissance
				value = 50
			}
		}
		if = {
			limit = {
				NOT = { new_world_i = 100 }
				has_global_flag = JY_LF_new_world_i
			}
			add_institution_embracement = {
				which = new_world_i
				value = 50
			}
		}
		if = {
			limit = {
				NOT = { printing_press = 100 }
				has_global_flag = JY_LF_printing_press
			}
			add_institution_embracement = {
				which = printing_press
				value = 50
			}
		}
		if = {
			limit = {
				NOT = { global_trade = 100 }
				has_global_flag = JY_LF_global_trade
			}
			add_institution_embracement = {
				which = global_trade
				value = 50
			}
		}
		if = {
			limit = {
				NOT = { manufactories = 100 }
				has_global_flag = JY_LF_manufactories
			}
			add_institution_embracement = {
				which = manufactories
				value = 50
			}
		}
		if = {
			limit = {
				NOT = { enlightenment = 100 }
				has_global_flag = JY_LF_enlightenment
			}
			add_institution_embracement = {
				which = enlightenment
				value = 50
			}
		}
		if = {
			limit = {
				NOT = { industrialization = 100 }
				has_global_flag = JY_LF_industrialization
			}
			add_institution_embracement = {
				which = industrialization
				value = 50
			}
		}
	}
}

JY_LF_teach = {
	if = {
		limit = { has_global_flag = JY_LF_institution_speed_2 } #Beikdugang MT
		if = {
			limit = {
				NOT = { renaissance = 100 }
				has_global_flag = JY_LF_renaissance2
			}
			custom_tooltip = JY_LF_taught
			custom_tooltip = JY_LF_Y15_speed_2
			add_institution_embracement = {
				which = renaissance
				value = 100
			}
		}
		if = {
			limit = {
				NOT = { new_world_i = 100 }
				has_global_flag = JY_LF_new_world_i2
			}
			custom_tooltip = JY_LF_taught
			custom_tooltip = JY_LF_Y15_speed_2
			add_institution_embracement = {
				which = new_world_i
				value = 100
			}
		}
		if = {
			limit = {
				NOT = { printing_press = 100 }
				has_global_flag = JY_LF_printing_press2
			}
			custom_tooltip = JY_LF_taught
			custom_tooltip = JY_LF_Y15_speed_2
			add_institution_embracement = {
				which = printing_press
				value = 100
			}
		}
		if = {
			limit = {
				NOT = { global_trade = 100 }
				has_global_flag = JY_LF_global_trade2
			}
			custom_tooltip = JY_LF_taught
			custom_tooltip = JY_LF_Y15_speed_2
			add_institution_embracement = {
				which = global_trade
				value = 100
			}
		}
		if = {
			limit = {
				NOT = { manufactories = 100 }
				has_global_flag = JY_LF_manufactories2
			}
			custom_tooltip = JY_LF_taught
			custom_tooltip = JY_LF_Y15_speed_2
			add_institution_embracement = {
				which = manufactories
				value = 100
			}
		}
		if = {
			limit = {
				NOT = { enlightenment = 100 }
				has_global_flag = JY_LF_enlightenment2
			}
			custom_tooltip = JY_LF_taught
			custom_tooltip = JY_LF_Y15_speed_2
			add_institution_embracement = {
				which = enlightenment
				value = 100
			}
		}
		if = {
			limit = {
				NOT = { industrialization = 100 }
				has_global_flag = JY_LF_industrialization2
			}
			custom_tooltip = JY_LF_taught
			custom_tooltip = JY_LF_Y15_speed_2
			add_institution_embracement = {
				which = industrialization
				value = 100
			}
		}
	}
	else = {
		if = {
			limit = {
				NOT = { renaissance = 100 }
				has_global_flag = JY_LF_renaissance2
			}
			custom_tooltip = JY_LF_taught
			add_institution_embracement = {
				which = renaissance
				value = 50
			}
		}
		if = {
			limit = {
				NOT = { new_world_i = 100 }
				has_global_flag = JY_LF_new_world_i2
			}
			custom_tooltip = JY_LF_taught
			add_institution_embracement = {
				which = new_world_i
				value = 50
			}
		}
		if = {
			limit = {
				NOT = { printing_press = 100 }
				has_global_flag = JY_LF_printing_press2
			}
			custom_tooltip = JY_LF_taught
			add_institution_embracement = {
				which = printing_press
				value = 50
			}
		}
		if = {
			limit = {
				NOT = { global_trade = 100 }
				has_global_flag = JY_LF_global_trade2
			}
			custom_tooltip = JY_LF_taught
			add_institution_embracement = {
				which = global_trade
				value = 50
			}
		}
		if = {
			limit = {
				NOT = { manufactories = 100 }
				has_global_flag = JY_LF_manufactories2
			}
			custom_tooltip = JY_LF_taught
			add_institution_embracement = {
				which = manufactories
				value = 50
			}
		}
		if = {
			limit = {
				NOT = { enlightenment = 100 }
				has_global_flag = JY_LF_enlightenment2
			}
			custom_tooltip = JY_LF_taught
			add_institution_embracement = {
				which = enlightenment
				value = 50
			}
		}
		if = {
			limit = {
				NOT = { industrialization = 100 }
				has_global_flag = JY_LF_industrialization2
			}
			custom_tooltip = JY_LF_taught
			add_institution_embracement = {
				which = industrialization
				value = 50
			}
		}
	}
}

#Tells Zurkanrek's owner what happened with the Pirates when the Fleet gets back
JY_LF_pirate_status = {
	if = {
		limit = { has_global_flag = JY_LF_P_weak }
		custom_tooltip = JY_LF_P_weak_t
	}
	if = {
		limit = { has_global_flag = JY_LF_P_weaker }
		custom_tooltip = JY_LF_P_weaker_t
	}
	if = {
		limit = { has_global_flag = JY_LF_bribed_P }
		custom_tooltip = JY_LF_bribed_P_t
		clr_global_flag = JY_LF_bribed_P
		add_treasury = -25
	}
	if = {
		limit = { has_global_flag = JY_LF_snuck_P }
		custom_tooltip = JY_LF_snuck_P_t
		clr_global_flag = JY_LF_snuck_P
	}
	if = {
		limit = { has_global_flag = JY_LF_caught_P }
		custom_tooltip = JY_LF_caught_P_t
		add_treasury = -40
		clr_global_flag = JY_LF_caught_P
	}
	if = {
		limit = { has_global_flag = JY_LF_beat_P }
		custom_tooltip = JY_LF_beat_P_t
		clr_global_flag = JY_LF_beat_P
	}
	if = {
		limit = { has_global_flag = JY_LF_lost_P }
		custom_tooltip = JY_LF_lost_P_t
		clr_global_flag = JY_LF_lost_P
	}
}

#How much money per port the Fleet gets
JY_LF_calculate_yield = {
	set_variable = {
		which = JY_LF_yield
		value = 15
	}
	if = {
		limit = { is_year = 1500 }
		change_variable = {
			which = JY_LF_yield
			value = 5
		}
	}
	if = {
		limit = { owner = { tag = J33 } }
		multiply_variable = {
			which = JY_LF_yield
			value = 2
		}
	}
	if = { #Sovkelqur MT
		limit = { 
			owner = {
				has_country_flag = treasure_fleet_level_1
			}	
		}
		multiply_variable = {
			which = JY_LF_yield
			value = 2
		}
	}
	if = { #Sovkelqur MT
		limit = {
			owner = {
				has_country_flag = treasure_fleet_level_2
			}
		}
		multiply_variable = {
			which = JY_LF_yield
			value = 2
		}
	}
	if = { #Sovkelqur MT
		limit = {
			owner = {
				has_country_flag = treasure_fleet_level_3
			}
		}
		multiply_variable = {
			which = JY_LF_yield
			value = 2
		}
	}
}

#How much money the Fleet gets total
JY_LF_calculate_total = {
	hidden_effect = {
		set_variable = {
			which = JY_LF_total
			which = JY_LF_ports
		}
		multiply_variable = {
			which = JY_LF_total
			which = JY_LF_yield
		}
	}
}






#Gives Beikdugang its perks from the MT
JY_LF_Y15 = {
	set_global_flag = JY_LF_Y15_perks
	if = {
		limit = { mission_completed = Y15_haven_sea }
		random_list = {
			33 = { JY_LF_Y15_adm_advisor = yes }
			33 = { JY_LF_Y15_dip_advisor = yes }
			33 = { JY_LF_Y15_mil_advisor = yes }
			1 = { JY_LF_Y15_kuk_advisor = yes }
		}
	}
	if = {
		limit = { has_global_flag = JY_LF_federation_crisis }
		random_owned_province = { 
			limit = {
				OR = {
					area = beidugang_area
					culture = kuldaakin
				}
			}
			custom_tooltip = JY_LF_Y15_refugees_come
			random_list = {
				33 = { add_base_tax = 1 }
				33 = { add_base_production = 1 }
				33 = { add_base_manpower = 1 }
			}
		}
	}
}

JY_LF_Y15_adm_advisor = {
	custom_tooltip = JY_LF_Y15_adm_advisor_t
	hidden_effect = {
		J24 = {
            PREV = {
                set_saved_name = {
                    key = JY_LF_Y15_name
                    type = advisor
                    scope = PREV
                }
            }
        }
		random_list = {
			10 = {
				define_advisor = {
					type = philosopher
					name = JY_LF_Y15_name
					skill = 2
					culture = zabatlari
					religion = yukel_followers
					discount = yes
				}
			}
			10 = {
				define_advisor = {
					type = natural_scientist
					name = JY_LF_Y15_name
					skill = 2
					culture = zabatlari
					religion = yukel_followers
					discount = yes
				}
			}
			10 = {
				define_advisor = {
					type = artist
					name = JY_LF_Y15_name
					skill = 2
					culture = zabatlari
					religion = yukel_followers
					discount = yes
				}
			}
			10 = {
				define_advisor = {
					type = treasurer
					name = JY_LF_Y15_name
					skill = 2
					culture = zabatlari
					religion = yukel_followers
					discount = yes
				}
			}
			10 = {
				define_advisor = {
					type = theologian
					name = JY_LF_Y15_name
					skill = 2
					culture = zabatlari
					religion = yukel_followers
					discount = yes
				}
			}
			10 = {
				define_advisor = {
					type = master_of_mint
					name = JY_LF_Y15_name
					skill = 2
					culture = zabatlari
					religion = yukel_followers
					discount = yes
				}
			}
			10 = {
				define_advisor = {
					type = court_mage
					name = JY_LF_Y15_name
					skill = 2
					culture = zabatlari
					religion = yukel_followers
					discount = yes
				}
			}##
			10 = {
				modifier = {
					factor = 0
					NOT = { has_global_flag = kalyin_enabled }
				}
				define_advisor = {
					type = philosopher
					name = JY_LF_Y15_name
					skill = 2
					culture = zabatlari
					religion = kalyin_worshippers
					discount = yes
				}
			}
			10 = {
				modifier = {
					factor = 0
					NOT = { has_global_flag = kalyin_enabled }
				}
				define_advisor = {
					type = natural_scientist
					name = JY_LF_Y15_name
					skill = 2
					culture = zabatlari
					religion = kalyin_worshippers
					discount = yes
				}
			}
			10 = {
				modifier = {
					factor = 0
					NOT = { has_global_flag = kalyin_enabled }
				}
				define_advisor = {
					type = artist
					name = JY_LF_Y15_name
					skill = 2
					culture = zabatlari
					religion = kalyin_worshippers
					discount = yes
				}
			}
			10 = {
				modifier = {
					factor = 0
					NOT = { has_global_flag = kalyin_enabled }
				}
				define_advisor = {
					type = treasurer
					name = JY_LF_Y15_name
					skill = 2
					culture = zabatlari
					religion = kalyin_worshippers
					discount = yes
				}
			}
			10 = {
				modifier = {
					factor = 0
					NOT = { has_global_flag = kalyin_enabled }
				}
				define_advisor = {
					type = theologian
					name = JY_LF_Y15_name
					skill = 2
					culture = zabatlari
					religion = kalyin_worshippers
					discount = yes
				}
			}
			10 = {
				modifier = {
					factor = 0
					NOT = { has_global_flag = kalyin_enabled }
				}
				define_advisor = {
					type = master_of_mint
					name = JY_LF_Y15_name
					skill = 2
					culture = zabatlari
					religion = kalyin_worshippers
					discount = yes
				}
			}
			10 = {
				modifier = {
					factor = 0
					NOT = { has_global_flag = kalyin_enabled }
				}
				define_advisor = {
					type = court_mage
					name = JY_LF_Y15_name
					skill = 2
					culture = zabatlari
					religion = kalyin_worshippers
					discount = yes
				}
			}
		}
		clear_saved_name = JY_LF_Y15_name
	}
}

JY_LF_Y15_dip_advisor = {
	custom_tooltip = JY_LF_Y15_dip_advisor_t
	hidden_effect = {
		J02 = {
            PREV = {
                set_saved_name = {
                    key = JY_LF_Y15_name
                    type = advisor
                    scope = PREV
                }
            }
        }
		random_list = {
			10 = {
				define_advisor = {
					type = statesman
					name = JY_LF_Y15_name
					skill = 2
					culture = khamgunai
					religion = enuuk_followers
					discount = yes
				}
			}
			10 = {
				define_advisor = {
					type = naval_reformer
					name = JY_LF_Y15_name
					skill = 2
					culture = khamgunai
					religion = enuuk_followers
					discount = yes
				}
			}
			10 = {
				define_advisor = {
					type = trader
					name = JY_LF_Y15_name
					skill = 2
					culture = khamgunai
					religion = enuuk_followers
					discount = yes
				}
			}
			10 = {
				define_advisor = {
					type = spymaster
					name = JY_LF_Y15_name
					skill = 2
					culture = khamgunai
					religion = enuuk_followers
					discount = yes
				}
			}
			10 = {
				define_advisor = {
					type = diplomat
					name = JY_LF_Y15_name
					skill = 2
					culture = khamgunai
					religion = enuuk_followers
					discount = yes
				}
			}
			10 = {
				define_advisor = {
					type = navigator
					name = JY_LF_Y15_name
					skill = 2
					culture = khamgunai
					religion = enuuk_followers
					discount = yes
				}
			}
			10 = {
				define_advisor = {
					type = colonial_governor
					name = JY_LF_Y15_name
					skill = 2
					culture = khamgunai
					religion = enuuk_followers
					discount = yes
				}
			}##
			10 = {
				modifier = {
					factor = 0
					NOT = { has_global_flag = kalyin_enabled }
				}
				define_advisor = {
					type = statesman
					name = JY_LF_Y15_name
					skill = 2
					culture = khamgunai
					religion = kalyin_worshippers
					discount = yes
				}
			}
			10 = {
				modifier = {
					factor = 0
					NOT = { has_global_flag = kalyin_enabled }
				}
				define_advisor = {
					type = naval_reformer
					name = JY_LF_Y15_name
					skill = 2
					culture = khamgunai
					religion = kalyin_worshippers
					discount = yes
				}
			}
			10 = {
				modifier = {
					factor = 0
					NOT = { has_global_flag = kalyin_enabled }
				}
				define_advisor = {
					type = trader
					name = JY_LF_Y15_name
					skill = 2
					culture = khamgunai
					religion = kalyin_worshippers
					discount = yes
				}
			}
			10 = {
				modifier = {
					factor = 0
					NOT = { has_global_flag = kalyin_enabled }
				}
				define_advisor = {
					type = spymaster
					name = JY_LF_Y15_name
					skill = 2
					culture = khamgunai
					religion = kalyin_worshippers
					discount = yes
				}
			}
			10 = {
				modifier = {
					factor = 0
					NOT = { has_global_flag = kalyin_enabled }
				}
				define_advisor = {
					type = diplomat
					name = JY_LF_Y15_name
					skill = 2
					culture = khamgunai
					religion = kalyin_worshippers
					discount = yes
				}
			}
			10 = {
				modifier = {
					factor = 0
					NOT = { has_global_flag = kalyin_enabled }
				}
				define_advisor = {
					type = navigator
					name = JY_LF_Y15_name
					skill = 2
					culture = khamgunai
					religion = kalyin_worshippers
					discount = yes
				}
			}
			10 = {
				modifier = {
					factor = 0
					NOT = { has_global_flag = kalyin_enabled }
				}
				define_advisor = {
					type = colonial_governor
					name = JY_LF_Y15_name
					skill = 2
					culture = khamgunai
					religion = kalyin_worshippers
					discount = yes
				}
			}
		}
		clear_saved_name = JY_LF_Y15_name
	}
}

JY_LF_Y15_mil_advisor = {
	custom_tooltip = JY_LF_Y15_mil_advisor_t
	hidden_effect = {
		J09 = {
            PREV = {
                set_saved_name = {
                    key = JY_LF_Y15_name
                    type = advisor
                    scope = PREV
                }
            }
        }
		random_list = {
			10 = {
				define_advisor = {
					type = army_reformer
					name = JY_LF_Y15_name
					skill = 2
					culture = metsamic
					religion = kodave_followers
					discount = yes
				}
			}
			10 = {
				define_advisor = {
					type = army_organiser
					name = JY_LF_Y15_name
					skill = 2
					culture = metsamic
					religion = kodave_followers
					discount = yes
				}
			}
			10 = {
				define_advisor = {
					type = commandant
					name = JY_LF_Y15_name
					skill = 2
					culture = metsamic
					religion = kodave_followers
					discount = yes
				}
			}
			10 = {
				define_advisor = {
					type = quartermaster
					name = JY_LF_Y15_name
					skill = 2
					culture = metsamic
					religion = kodave_followers
					discount = yes
				}
			}
			10 = {
				define_advisor = {
					type = recruitmaster
					name = JY_LF_Y15_name
					skill = 2
					culture = metsamic
					religion = kodave_followers
					discount = yes
				}
			}
			10 = {
				define_advisor = {
					type = fortification_expert
					name = JY_LF_Y15_name
					skill = 2
					culture = metsamic
					religion = kodave_followers
					discount = yes
				}
			}
			10 = {
				define_advisor = {
					type = grand_captain
					name = JY_LF_Y15_name
					skill = 2
					culture = metsamic
					religion = kodave_followers
					discount = yes
				}
			}##
			10 = {
				modifier = {
					factor = 0
					NOT = { has_global_flag = kalyin_enabled }
				}
				define_advisor = {
					type = army_reformer
					name = JY_LF_Y15_name
					skill = 2
					culture = metsamic
					religion = kalyin_worshippers
					discount = yes
				}
			}
			10 = {
				modifier = {
					factor = 0
					NOT = { has_global_flag = kalyin_enabled }
				}
				define_advisor = {
					type = army_organiser
					name = JY_LF_Y15_name
					skill = 2
					culture = metsamic
					religion = kalyin_worshippers
					discount = yes
				}
			}
			10 = {
				modifier = {
					factor = 0
					NOT = { has_global_flag = kalyin_enabled }
				}
				define_advisor = {
					type = commandant
					name = JY_LF_Y15_name
					skill = 2
					culture = metsamic
					religion = kalyin_worshippers
					discount = yes
				}
			}
			10 = {
				modifier = {
					factor = 0
					NOT = { has_global_flag = kalyin_enabled }
				}
				define_advisor = {
					type = quartermaster
					name = JY_LF_Y15_name
					skill = 2
					culture = metsamic
					religion = kalyin_worshippers
					discount = yes
				}
			}
			10 = {
				modifier = {
					factor = 0
					NOT = { has_global_flag = kalyin_enabled }
				}
				define_advisor = {
					type = recruitmaster
					name = JY_LF_Y15_name
					skill = 2
					culture = metsamic
					religion = kalyin_worshippers
					discount = yes
				}
			}
			10 = {
				modifier = {
					factor = 0
					NOT = { has_global_flag = kalyin_enabled }
				}
				define_advisor = {
					type = fortification_expert
					name = JY_LF_Y15_name
					skill = 2
					culture = metsamic
					religion = kalyin_worshippers
					discount = yes
				}
			}
			10 = {
				modifier = {
					factor = 0
					NOT = { has_global_flag = kalyin_enabled }
				}
				define_advisor = {
					type = grand_captain
					name = JY_LF_Y15_name
					skill = 2
					culture = metsamic
					religion = kalyin_worshippers
					discount = yes
				}
			}
		}
		clear_saved_name = JY_LF_Y15_name
	}
}

JY_LF_Y15_kuk_advisor = {
	custom_tooltip = JY_LF_Y15_kuk_advisor_t
	hidden_effect = {
		J10 = {
            PREV = {
                set_saved_name = {
                    key = JY_LF_Y15_name
                    type = advisor
                    scope = PREV
                }
            }
        }
		random_list = {
			10 = {
				define_advisor = {
					type = philosopher
					name = JY_LF_Y15_name
					skill = 2
					culture = kukatodic
					religion = kukatodic_religion
					discount = yes
				}
			}
			10 = {
				define_advisor = {
					type = trader
					name = JY_LF_Y15_name
					skill = 2
					culture = kukatodic
					religion = kukatodic_religion
					discount = yes
				}
			}
			10 = {
				define_advisor = {
					type = artist
					name = JY_LF_Y15_name
					skill = 2
					culture = kukatodic
					religion = kukatodic_religion
					discount = yes
				}
			}
			10 = {
				define_advisor = {
					type = quartermaster
					name = JY_LF_Y15_name
					skill = 2
					culture = kukatodic
					religion = kukatodic_religion
					discount = yes
				}
			}
			10 = {
				define_advisor = {
					type = theologian
					name = JY_LF_Y15_name
					skill = 2
					culture = kukatodic
					religion = kukatodic_religion
					discount = yes
				}
			}
			10 = {
				define_advisor = {
					type = fortification_expert
					name = JY_LF_Y15_name
					skill = 2
					culture = kukatodic
					religion = kukatodic_religion
					discount = yes
				}
			}
			10 = {
				define_advisor = {
					type = court_mage
					name = JY_LF_Y15_name
					skill = 2
					culture = kukatodic
					religion = kukatodic_religion
					discount = yes
				}
			}
		}
		clear_saved_name = JY_LF_Y15_name
	}
}